Breedte;40;60;80;100;120;140;160;180;200;220;240;260;280;300
Hoogte;;;;;;;;;;;;;;
40;160;170;186;206;224;244;260;280;298;316;336;328;372;382
60;160;170;186;206;224;244;260;280;298;316;336;328;372;382
80;160;170;186;206;224;244;260;280;298;316;336;328;372;382
100;160;170;186;206;224;244;260;280;298;316;336;328;372;382
120;172;170;204;224;244;264;2624;306;324;344;364;360;406;416
140;184;182;216;240;264;284;306;330;352;374;394;392;440;450
160;200;208;234;258;282;306;334;354;380;402;426;424;450;486
180;208;220;248;272;300;326;352;380;406;430;458;458;510;522
200;220;234;264;290;320;346;374;406;430;460;488;490;544;558
220;232;248;148;308;338;368;398;428;458;488;518;522;578;590
240;246;260;294;324;356;388;420;454;486;516;548;554;614;628
260;258;272;308;342;376;410;444;476;510;546;578;588;646;664
280;268;286;324;362;394;430;466;502;536;572;610;620;680;700
300;280;300;338;246;428;450;490;528;564;602;638;678;688;732
;;;;;;;;;;;;;;
;Linnen polyester Transparante vouwgordijnen ongevoerd;;;;;;;;;;;;;