Breedte;120;180;240;300;360;420;480;540;600;660;720;780;840
60;;113;136;175;223;278;343;409;497;591;695;805;789
80;104;136;168;216;271;334;405;488;575;685;798;915;909
100;120;159;200;255;317;391;469;568;662;782;899;1028;1028
120;136;184;232;294;366;446;534;646;750;876;1003;1139;1145
140;152;207;262;334;414;501;596;727;837;973;1106;1249;1265
160;168;232;294;375;462;557;660;805;925;1067;1210;1362;1385
180;184;255;327;414;508;612;722;886;1012;1162;1313;1472;1504
200;200;278;359;453;557;667;787;964;1099;1258;1417;1582;1622
220;216;304;391;492;605;722;851;1044;1187;1352;1520;1693;1741
240;232;327;421;534;651;780;913;1122;1274;1449;1725;1806;1861
260;246;350;453;573;699;835;978;1203;1362;1543;1829;1916;1980
280;262;375;485;612;748;890;1040;1281;1449;1638;1932;2026;2098
300;278;398;518;651;794;945;1104;1362;1534;1734;2036;2139;2217
320;294;421;550;692;842;1001;1168;1440;1622;1829;2139;2249;2337
340;311;446;580;731;890;1056;1231;1520;1709;1925;2243;2360;2456
360;327;469;612;771;938;1111;1295;1599;1796;2019;2344;2473;2574
380;343;492;644;810;984;1168;1357;1679;1884;2114;2447;2583;2693
400;359;518;676;851;1033;1224;1421;1757;1971;2210;2551;2693;2813
