Breedte;40;60;80;100;120;140;160;180;200;220;240;260;280;300
40;184;196;214;237;258;281;299;322;343;363;386;377;428;439
60;184;196;214;237;258;281;299;322;343;363;386;377;428;439
80;184;196;214;237;258;281;299;322;343;363;386;377;428;439
100;184;196;214;237;258;281;299;322;343;363;386;377;428;439
120;198;196;235;258;281;304;3018;352;373;396;419;414;467;478
140;212;209;248;276;304;327;352;380;405;430;453;451;506;518
160;230;239;269;297;324;352;384;407;437;462;490;488;518;559
180;239;253;285;313;345;375;405;437;467;495;527;527;587;600
200;253;269;304;334;368;398;430;467;495;529;561;564;626;642
220;267;285;170;354;389;423;458;492;527;561;596;600;665;679
240;283;299;338;373;409;446;483;522;559;593;630;637;706;722
260;297;313;354;393;432;472;511;547;587;628;665;676;743;764
280;308;329;373;416;453;495;536;577;616;658;702;713;782;805
300;322;345;389;283;492;518;564;607;649;692;734;780;791;842
